  ------------------------------------------------------------
  Configuration date: 2022-04-07 12:33:31 UTC -07:00
  Git branch:         release-v1.7.0
  Git hash:           c5c382d7d23365463896a87c37298e4a37e4c962
  Fortran compiler:   GNU 11.2.0
  C compiler:         GNU 11.2.0
  C++ compiler:       GNU 11.2.0
  LAPACK type:        SYSTEM_NATIVE
  BLAS type:          SYSTEM_NATIVE
  64-bit integers:    OFF
  OpenMP:             ON
  PCM:                OFF
  Forced batching:    OFF
  Runtime checks:     OFF
  ------------------------------------------------------------

  Description                                 wall[s]         cpu[s]    cpu/wall
  -------------------------------------------------------------------------------------
  One-electron integrals (overlap)             0.00            0.00        --
  Cholesky decomposition of AO        
  overlap                                      0.00            0.00        --
  Time initializing AO tool                    0.01            0.01      0.91

  :: Hartree-Fock engine
  =========================

  2) Calculation of reference state (SCF-DIIS algorithm)

  Description                                 wall[s]         cpu[s]    cpu/wall
  -------------------------------------------------------------------------------------
  One-electron integrals              
  (hamiltonian)                                0.00            0.00        --
  AO G construction                            0.01            0.01      2.08
  SCF solver                                   0.00            0.00        --
  Hartree-Fock engine                          0.01            0.02      1.76


  Cholesky-decomposing electron repulsion integrals
  =================================================
  Cholesky: time to determine         
  auxiliary basis                              0.04            0.05      1.25
  Cholesky: time to construct         
  (J|K), decompose, and invert                 0.02            0.03      1.18
  Diagonal test                                0.07            0.08      1.04
  Construct and write Cholesky        
  vectors                                      0.03            0.03      1.07
  Cholesky decomposition of ERIs               0.16            0.19      1.12
  Cholesky-decomposing electron       
  repulsion integrals                          0.16            0.19      1.13


  Determining CC cluster amplitudes
  =================================
  T1 transform cholesky                        0.00            0.00      1.21
  One-electron integrals              
  (hamiltonian)                                0.00            0.00        --
  Fock matrix construction (T1 basis)         0.00            0.00      0.57
  Calculate energy (ccs)                       0.00            0.00      0.33
  Construct CCS Omega                          0.00            0.00        --
  DIIS CC GS iteration time                    0.00            0.00      0.63
  CC GS solver time                            0.01            0.00      0.83
  Determining CC cluster amplitudes            0.01            0.00      0.85


  Determining CC multipliers
  ==========================
  One-electron integrals              
  (hamiltonian)                                0.00            0.00        --
  Fock matrix construction (T1 basis)         0.00            0.00      0.46
  Determining CC multipliers                   0.00            0.00      0.48


  Determining CC excited state amplitudes
  =======================================
  One-electron integrals              
  (hamiltonian)                                0.00            0.00      0.20
  Fock matrix construction (T1 basis)         0.00            0.00      0.61
  Jacobian CCS transformation                  0.00            0.00      0.62
  Jacobian CCS transformation                  0.00            0.00      0.92
  Jacobian CCS transformation                  0.00            0.00      0.52
  Determining CC excited state        
  amplitudes                                   0.01            0.01      0.78


  Determining CC excited state amplitudes
  =======================================
  One-electron integrals              
  (hamiltonian)                                0.00            0.00        --
  Fock matrix construction (T1 basis)         0.00            0.00      1.21
  Jacobian transpose CCS                       0.00            0.00      0.44
  Jacobian transpose CCS                       0.00            0.00      0.83
  Jacobian transpose CCS                       0.00            0.00      0.46
  Determining CC excited state        
  amplitudes                                   0.01            0.01      0.43


  Biorthonormalization of excited CC states
  =========================================
  Biorthonormalization of left and    
  right states                                 0.00            0.00      0.35
  Biorthonormalization of excited     
  CC states                                    0.00            0.00      0.38


  Determining CC EOM transition moments
  =====================================
  Ground state density                         0.00            0.00        --
  One-electron integrals (dipole)              0.00            0.00        --
  Density <0|E_pq|1>                           0.00            0.00        --
  Density <0|E_pq|2>                           0.00            0.00        --
  Density <0|E_pq|3>                           0.00            0.00        --
  Density <1|E_pq|0>                           0.00            0.00        --
  Density <2|E_pq|0>                           0.00            0.00        --
  Density <3|E_pq|0>                           0.00            0.00        --
  Determining CC EOM transition       
  moments                                      0.00            0.00      0.55


  :: Total time
  ================
  Total time in eT                             0.23            0.24      1.04
