


                     eT 1.7 - an electronic structure program

  ------------------------------------------------------------------------
   Author list in alphabetical order:
  ------------------------------------------------------------------------
   J. H. Andersen, A. Balbi, S. Coriani, S. D. Folkestad, T. Giovannini, 
   L. Goletto, T. S. Haugland, A. Hutcheson, I-M. Høyvik, E. F. Kjønstad, 
   H. Koch, R. Matveeva, T. Moitra, R. H. Myhre, A. C. Paul, S. Roet, 
   E. RoncaM. Scavino, A. K. Schnack-Petersen, A. S. Skeidsvoll, Å. 
   H. Tveten
  ------------------------------------------------------------------------
   J. Chem. Phys. 152, 184103 (2020); https://doi.org/10.1063/5.0004713


   This is eT 1.7.0 Hydra
  ------------------------------------------------------------
  Configuration date: 2022-04-07 12:33:31 UTC -07:00
  Git branch:         release-v1.7.0
  Git hash:           c5c382d7d23365463896a87c37298e4a37e4c962
  Fortran compiler:   GNU 11.2.0
  C compiler:         GNU 11.2.0
  C++ compiler:       GNU 11.2.0
  LAPACK type:        SYSTEM_NATIVE
  BLAS type:          SYSTEM_NATIVE
  64-bit integers:    OFF
  OpenMP:             ON
  PCM:                OFF
  Forced batching:    OFF
  Runtime checks:     OFF
  ------------------------------------------------------------

  Calculation started: 2022-04-07 12:34:45 UTC -07:00


  :: Input file
  ================

     Note: geometry section is excluded from this print

     system
        name: H2O He
        charge: 0
     end system

     do
       mean value
     end do

     memory
        available: 8
     end memory

     solver cholesky
        threshold: 1.0d-11
     end solver cholesky

     solver scf
        energy threshold:   1.0d-11
        gradient threshold: 1.0d-11
     end solver scf

     method
        hf
        ccs
     end method

     solver cc gs
        omega threshold:  1.0d-11
     end solver cc gs

     solver cc multipliers
        threshold: 1.0d-11
     end solver cc multipliers

     cc mean value
        dipole
     end cc mean value


  Running on 2 OMP threads
  Memory available for calculation: 8.000000 GB


  :: RHF wavefunction
  ======================

     ==============================================================================
                                     Geometry (angstrom)
     ==============================================================================
        Atom           X                  Y                  Z         # in input
     ==============================================================================
        Basis: sto-3g
        1  H     0.866810000000     0.601440000000     0.000000000000        1
        2  H    -0.866810000000     0.601440000000     0.000000000000        2
        3  O     0.000000000000    -0.075790000000     0.000000000000        3
     ==============================================================================

     ==============================================================================
                                     Geometry (a.u.)
     ==============================================================================
        Atom           X                  Y                  Z         # in input
     ==============================================================================
        Basis: sto-3g
        1  H     1.638033502034     1.136556880358     0.000000000000        1
        2  H    -1.638033502034     1.136556880358     0.000000000000        2
        3  O     0.000000000000    -0.143222342981     0.000000000000        3
     ==============================================================================

  - Cholesky decomposition of AO overlap to get linearly independent AOs:

     Linear dependence threshold:             0.10E-05
     Number of atomic orbitals:               7
     Number of orthonormal atomic orbitals:   7

  - Molecular orbital details:

     Number of occupied orbitals:         5
     Number of virtual orbitals:          2
     Number of molecular orbitals:        7


  :: Hartree-Fock engine
  =========================

  Drives the calculation of the Hartree-Fock state.

  This is a RHF ground state calculation.
  The following tasks will be performed:

     1) Generate initial SAD density
     2) Calculation of reference state (SCF-DIIS algorithm)


  1) Generate initial SAD density


  2) Calculation of reference state (SCF-DIIS algorithm)

  - Setting initial AO density to sad

     Energy of initial guess:               -74.363236511985
     Number of electrons in guess:           10.000000000000

  - Screening and integral thresholds:

     Coulomb screening threshold:    0.1000E-16
     Exchange screening threshold:   0.1000E-14
     ERI cutoff:                     0.1000E-16
     One-electron integral  cutoff:  0.1000E-21
     Cumulative Fock threshold:      0.1000E+01

  - SCF solver settings:

     Maximum iterations:                   100
     Acceleration type:                   diis

  - Convergence thresholds

     Residual threshold:            0.1000E-10
     Energy threshold:              0.1000E-10

  - DIIS tool settings:

     DIIS dimension:   8

     Storage (solver scf_errors): memory
     Storage (solver scf_parameters): memory

  Iteration       Energy (a.u.)      Max(grad.)    Delta E (a.u.)
  ---------------------------------------------------------------
     1           -74.889701962821     0.1071E+00     0.7489E+02
     2           -74.940474931397     0.1469E-01     0.5077E-01
     3           -74.942054999957     0.2353E-02     0.1580E-02
     4           -74.942080036553     0.5610E-04     0.2504E-04
     5           -74.942080053363     0.1780E-04     0.1681E-07
     6           -74.942080057695     0.2053E-06     0.4333E-08
     7           -74.942080057696     0.9667E-09     0.3979E-12
     8           -74.942080057696     0.7838E-12     0.2842E-13
  ---------------------------------------------------------------
  Convergence criterion met in 8 iterations!

  - Summary of RHF wavefunction energetics (a.u.):

     HOMO-LUMO gap:                  0.865206190622
     Nuclear repulsion energy:       8.002366974166
     Electronic energy:            -82.944447031862
     Total energy:                 -74.942080057696

  - Timings for the RHF ground state calculation

     Total wall time (sec):              0.02200
     Total cpu time (sec):               0.01878


  :: CCS wavefunction
  ======================

     Bath orbital(s):         False

   - Number of orbitals:

     Occupied orbitals:    5
     Virtual orbitals:     2
     Molecular orbitals:   7
     Atomic orbitals:      7

   - Number of ground state amplitudes:

     Single excitation amplitudes:  10


  Cholesky-decomposing electron repulsion integrals
  =================================================

  Cholesky decomposition of electronic repulsion integrals solver
  ---------------------------------------------------------------

  Performs a Cholesky decomposition of the two-electron electronic repulsion 
  integrals in the atomic orbital basis,

  (ab|cd) = sum_J L_ab^J L_cd^J.

  Once the Cholesky basis has been determined, the vectors L^J are constructed 
  and stored to disk. These may either be used directly, or be transformed 
  to the MO basis for use in post-HF calculations. For more information, 
  see S. D. Folkestad, E. F. Kjønstad and H. Koch, JCP, 150(19), (2019)

  - Cholesky decomposition settings:

     Target threshold is:   0.10E-10
     Span factor:           0.10E-01
     Max qual:                  1000

  - Cholesky decomposition ao details:

     Total number of AOs:                     7
     Total number of shell pairs:            15
     Total number of AO pairs:               28

     Significant shell pairs:                15
     Significant AO pairs:                   28

     Construct shell pairs:                  15
     Construct AO pairs:                     28

  Iter.  #Sign. ao pairs / shell pairs   Max diagonal    #Qualified    #Cholesky    Cholesky array size
  -------------------------------------------------------------------------------------------------------
     1                22 /      11       0.47851E+01          17              9               198
     2                 6 /       6       0.47444E-01          16             22               132
     3                 2 /       2       0.40655E-03           4             26                52
     4                 0 /       0       0.80613E-06           2             28                 0
  -------------------------------------------------------------------------------------------------------

  - Summary of Cholesky decomposition of electronic repulsion integrals:

     Final number of Cholesky vectors: 28

 - Testing the Cholesky decomposition decomposition electronic repulsion integrals:

     Maximal difference between approximate and actual diagonal:              0.2342E-15
     Minimal element of difference between approximate and actual diagonal:  -0.1216E-15

  - Settings for integral handling:

     Cholesky vectors in memory: True
     ERI matrix in memory:       False

  - Finished decomposing the ERIs.

     Total wall time (sec):              0.00800
     Total cpu time (sec):               0.00655


  Determining CC cluster amplitudes
  =================================

   - DIIS coupled cluster ground state solver
  ----------------------------------------------

  A DIIS CC ground state amplitude equations solver. It uses an extrapolation 
  of previous quasi-Newton perturbation theory estimates of the next amplitudes. 
  See Helgaker et al., Molecular Electronic Structure Theory, Chapter 
  13.

  - CC ground state solver settings:

  - Convergence thresholds

     Residual threshold:            0.1000E-10
     Max number of iterations:      100

  - DIIS tool settings:

     DIIS dimension:   8

     Storage (cc_gs_diis_errors): file
     Storage (cc_gs_diis_parameters): file

  Iteration    Energy (a.u.)        |omega|       Delta E (a.u.)
  ---------------------------------------------------------------
    1           -74.942080057696     0.1203E-11     0.7494E+02
  ---------------------------------------------------------------
  Convergence criterion met in 1 iterations!

  - Ground state summary:

     Final ground state energy (a.u.):   -74.942080057696

     Correlation energy (a.u.):            0.000000000000

     Largest single amplitudes:
     -----------------------------------
        a       i         t(a,i)
     -----------------------------------
        1      1        0.000000000000
        2      1        0.000000000000
        1      2        0.000000000000
        2      2        0.000000000000
        1      3        0.000000000000
        2      3        0.000000000000
        1      4        0.000000000000
        2      4        0.000000000000
        1      5        0.000000000000
        2      5        0.000000000000
     ------------------------------------

  - Finished solving the CCS ground state equations

     Total wall time (sec):              0.00100
     Total cpu time (sec):               0.00121


  Determining CC multipliers
  ==========================

   - DIIS coupled cluster multipliers solver
  ---------------------------------------------

  A DIIS CC multiplier equations solver. It combines a quasi-Newton perturbation 
  theory estimate of the next multipliers, using least square fitting 
  to find an an optimal combination of previous estimates such that the 
  update is minimized.

  See Helgaker et al., Molecular Electronic Structure Theory, Chapter 
  13, for the more details on this algorithm.

  - DIIS CC multipliers solver settings:

     Residual threshold:        0.10E-10
     Max number of iterations:       100

  - DIIS tool settings:

     DIIS dimension:   8

     Storage (cc_multipliers_diis_errors): file
     Storage (cc_multipliers_diis_parameters): file

  Iteration    Norm residual
  ----------------------------
    1          0.2408E-11
  ----------------------------
  Convergence criterion met in 1 iterations!

  - Finished solving the ccs multipliers equations

     Total wall time (sec):              0.00000
     Total cpu time (sec):               0.00056

  - CC multipliers solver summary:

     Largest single amplitudes:
     -----------------------------------
        a       i         tbar(a,i)
     -----------------------------------
        1      1        0.000000000000
        2      1        0.000000000000
        1      2        0.000000000000
        2      2        0.000000000000
        1      3        0.000000000000
        2      3        0.000000000000
        1      4        0.000000000000
        2      4        0.000000000000
        1      5        0.000000000000
        2      5        0.000000000000
     ------------------------------------


  Determining CC mean values
  ==========================

  - Operator: dipole [Debye]

     x:          0.0000000
     y:          1.5339994
     z:          0.0000000

     |mu|:       1.5339994

  ------------------------------------------------------------

  Peak memory usage during the execution of eT: 59.492 KB

  Total wall time in eT (sec):              0.04300
  Total cpu time in eT (sec):               0.03668

  Calculation ended: 2022-04-07 12:34:45 UTC -07:00

  - Implementation references:

     eT: https://doi.org/10.1063/5.0004713
     Cholesky decomposition of ERIs: https://doi.org/10.1063/1.5083802

  eT terminated successfully!
