


                     eT 1.7 - an electronic structure program

  ------------------------------------------------------------------------
   Author list in alphabetical order:
  ------------------------------------------------------------------------
   J. H. Andersen, A. Balbi, S. Coriani, S. D. Folkestad, T. Giovannini, 
   L. Goletto, T. S. Haugland, A. Hutcheson, I-M. Høyvik, E. F. Kjønstad, 
   H. Koch, R. Matveeva, T. Moitra, R. H. Myhre, A. C. Paul, S. Roet, 
   E. RoncaM. Scavino, A. K. Schnack-Petersen, A. S. Skeidsvoll, Å. 
   H. Tveten
  ------------------------------------------------------------------------
   J. Chem. Phys. 152, 184103 (2020); https://doi.org/10.1063/5.0004713


   This is eT 1.7.0 Hydra
  ------------------------------------------------------------
  Configuration date: 2022-04-07 12:33:31 UTC -07:00
  Git branch:         release-v1.7.0
  Git hash:           c5c382d7d23365463896a87c37298e4a37e4c962
  Fortran compiler:   GNU 11.2.0
  C compiler:         GNU 11.2.0
  C++ compiler:       GNU 11.2.0
  LAPACK type:        SYSTEM_NATIVE
  BLAS type:          SYSTEM_NATIVE
  64-bit integers:    OFF
  OpenMP:             ON
  PCM:                OFF
  Forced batching:    OFF
  Runtime checks:     OFF
  ------------------------------------------------------------

  Calculation started: 2022-04-07 12:34:38 UTC -07:00


  :: Input file
  ================

     Note: geometry section is excluded from this print

     system
         name: nto_cube
         charge: 0
     end system

     do
        excited state
     end do

     method
         hf
         ccs
     end method

     memory
        available: 8
     end memory

     solver cholesky
        threshold: 1.0d-12
     end solver cholesky

     solver scf
        energy threshold:   1.0d-10
        gradient threshold: 1.0d-10
     end solver scf

     solver cc gs
        energy threshold: 1.0d-10
        omega threshold:  1.0d-10
     end solver cc gs

     solver cc es
        singlet states:     1
        residual threshold: 1.0d-10
     end solver cc es

     visualization
         file format: cube
         plot ntos
         grid spacing: 0.2
         grid buffer: 1.0
     end visualization


  Running on 2 OMP threads
  Memory available for calculation: 8.000000 GB


  :: RHF wavefunction
  ======================

     ==============================================================================
                                     Geometry (angstrom)
     ==============================================================================
        Atom           X                  Y                  Z         # in input
     ==============================================================================
        Basis: sto-3g
        1  H     0.866810000000     0.601440000000     5.000000000000        1
        2  H    -0.866810000000     0.601440000000     5.000000000000        2
        3  O     0.000000000000    -0.075790000000     5.000000000000        3
        4 He     0.000000000000     0.000000000000     7.500000000000        4
     ==============================================================================

     ==============================================================================
                                     Geometry (a.u.)
     ==============================================================================
        Atom           X                  Y                  Z         # in input
     ==============================================================================
        Basis: sto-3g
        1  H     1.638033502034     1.136556880358     9.448630622825        1
        2  H    -1.638033502034     1.136556880358     9.448630622825        2
        3  O     0.000000000000    -0.143222342981     9.448630622825        3
        4 He     0.000000000000     0.000000000000    14.172945934238        4
     ==============================================================================

  - Cholesky decomposition of AO overlap to get linearly independent AOs:

     Linear dependence threshold:             0.10E-05
     Number of atomic orbitals:               8
     Number of orthonormal atomic orbitals:   8

  - Molecular orbital details:

     Number of occupied orbitals:         6
     Number of virtual orbitals:          2
     Number of molecular orbitals:        8


  :: Hartree-Fock engine
  =========================

  Drives the calculation of the Hartree-Fock state.

  This is a RHF ground state calculation.
  The following tasks will be performed:

     1) Generate initial SAD density
     2) Calculation of reference state (SCF-DIIS algorithm)


  1) Generate initial SAD density


  2) Calculation of reference state (SCF-DIIS algorithm)

  - Setting initial AO density to sad

     Energy of initial guess:               -77.171538934886
     Number of electrons in guess:           12.000000000000

  - Screening and integral thresholds:

     Coulomb screening threshold:    0.1000E-15
     Exchange screening threshold:   0.1000E-13
     ERI cutoff:                     0.1000E-15
     One-electron integral  cutoff:  0.1000E-20
     Cumulative Fock threshold:      0.1000E+01

  - SCF solver settings:

     Maximum iterations:                   100
     Acceleration type:                   diis

  - Convergence thresholds

     Residual threshold:            0.1000E-09
     Energy threshold:              0.1000E-09

  - DIIS tool settings:

     DIIS dimension:   8

     Storage (solver scf_errors): memory
     Storage (solver scf_parameters): memory

  Iteration       Energy (a.u.)      Max(grad.)    Delta E (a.u.)
  ---------------------------------------------------------------
     1           -77.696768194319     0.1072E+00     0.7770E+02
     2           -77.747590193935     0.1469E-01     0.5082E-01
     3           -77.749172032332     0.2351E-02     0.1582E-02
     4           -77.749197055394     0.5689E-04     0.2502E-04
     5           -77.749197072869     0.1818E-04     0.1747E-07
     6           -77.749197077405     0.2512E-06     0.4537E-08
     7           -77.749197077406     0.6230E-07     0.9379E-12
     8           -77.749197077406     0.2194E-07     0.2842E-13
     9           -77.749197077406     0.1920E-09     0.0000E+00
    10           -77.749197077406     0.1049E-12     0.2842E-13
  ---------------------------------------------------------------
  Convergence criterion met in 10 iterations!

  - Summary of RHF wavefunction energetics (a.u.):

     HOMO-LUMO gap:                  0.864994106596
     Nuclear repulsion energy:      12.167611407170
     Electronic energy:            -89.916808484576
     Total energy:                 -77.749197077406

  - Timings for the RHF ground state calculation

     Total wall time (sec):              0.06700
     Total cpu time (sec):               0.02888


  :: CCS wavefunction
  ======================

     Bath orbital(s):         False

   - Number of orbitals:

     Occupied orbitals:    6
     Virtual orbitals:     2
     Molecular orbitals:   8
     Atomic orbitals:      8

   - Number of ground state amplitudes:

     Single excitation amplitudes:  12


  Cholesky-decomposing electron repulsion integrals
  =================================================

  Cholesky decomposition of electronic repulsion integrals solver
  ---------------------------------------------------------------

  Performs a Cholesky decomposition of the two-electron electronic repulsion 
  integrals in the atomic orbital basis,

  (ab|cd) = sum_J L_ab^J L_cd^J.

  Once the Cholesky basis has been determined, the vectors L^J are constructed 
  and stored to disk. These may either be used directly, or be transformed 
  to the MO basis for use in post-HF calculations. For more information, 
  see S. D. Folkestad, E. F. Kjønstad and H. Koch, JCP, 150(19), (2019)

  - Cholesky decomposition settings:

     Target threshold is:   0.10E-11
     Span factor:           0.10E-01
     Max qual:                  1000

  - Cholesky decomposition ao details:

     Total number of AOs:                     8
     Total number of shell pairs:            21
     Total number of AO pairs:               36

     Significant shell pairs:                21
     Significant AO pairs:                   36

     Construct shell pairs:                  21
     Construct AO pairs:                     36

  Iter.  #Sign. ao pairs / shell pairs   Max diagonal    #Qualified    #Cholesky    Cholesky array size
  -------------------------------------------------------------------------------------------------------
     1                29 /      16       0.47851E+01          18             10               290
     2                13 /      11       0.47444E-01          16             23               299
     3                 7 /       5       0.39690E-03           8             30               210
     4                 1 /       1       0.13302E-05           5             35                35
     5                 0 /       0       0.45637E-10           1             36                 0
  -------------------------------------------------------------------------------------------------------

  - Summary of Cholesky decomposition of electronic repulsion integrals:

     Final number of Cholesky vectors: 36

 - Testing the Cholesky decomposition decomposition electronic repulsion integrals:

     Maximal difference between approximate and actual diagonal:              0.2140E-15
     Minimal element of difference between approximate and actual diagonal:  -0.1198E-15

  - Settings for integral handling:

     Cholesky vectors in memory: True
     ERI matrix in memory:       False

  - Finished decomposing the ERIs.

     Total wall time (sec):              0.03500
     Total cpu time (sec):               0.01190


  Determining CC cluster amplitudes
  =================================

   - DIIS coupled cluster ground state solver
  ----------------------------------------------

  A DIIS CC ground state amplitude equations solver. It uses an extrapolation 
  of previous quasi-Newton perturbation theory estimates of the next amplitudes. 
  See Helgaker et al., Molecular Electronic Structure Theory, Chapter 
  13.

  - CC ground state solver settings:

  - Convergence thresholds

     Residual threshold:            0.1000E-09
     Energy threshold:              0.1000E-09
     Max number of iterations:      100

  - DIIS tool settings:

     DIIS dimension:   8

     Storage (cc_gs_diis_errors): file
     Storage (cc_gs_diis_parameters): file

  Iteration    Energy (a.u.)        |omega|       Delta E (a.u.)
  ---------------------------------------------------------------
    1           -77.749197077406     0.1563E-12     0.7775E+02
  ---------------------------------------------------------------
  Convergence criterion met in 1 iterations!

  - Ground state summary:

     Final ground state energy (a.u.):   -77.749197077406

     Correlation energy (a.u.):            0.000000000000

     Largest single amplitudes:
     -----------------------------------
        a       i         t(a,i)
     -----------------------------------
        1      1        0.000000000000
        2      1        0.000000000000
        1      2        0.000000000000
        2      2        0.000000000000
        1      3        0.000000000000
        2      3        0.000000000000
        1      4        0.000000000000
        2      4        0.000000000000
        1      5        0.000000000000
        2      5        0.000000000000
     ------------------------------------

  - Finished solving the CCS ground state equations

     Total wall time (sec):              0.00400
     Total cpu time (sec):               0.00183


  Determining CC excited state amplitudes
  =======================================

  Davidson eigenvalue equation solver
  -----------------------------------

  A Davidson solver that solves an eigenvalue equation: M x = omega x. 
  This equation is solved in a reduced space. A description of the algorithm 
  can be found in E. R. Davidson, J. Comput. Phys. 17, 87 (1975).

   - Davidson tool settings:

     Number of parameters:                   12
     Number of requested solutions:           1
     Max reduced space dimension:            12

     Storage (cc_es_davidson_trials): memory
     Storage (cc_es_davidson_transforms): memory

  - Davidson solver settings

     Number of singlet states:               1
     Max number of iterations:             100

  Iteration:                  1
  Reduced space dimension:    1

  Root  Eigenvalue (Re)   Eigenvalue (Im)    |residual|   Delta E (Re)
  -------------------------------------------------------------------------
     1   0.356461172705    0.000000000000     0.7953E-02   0.3565E+00
  -------------------------------------------------------------------------

  Iteration:                  2
  Reduced space dimension:    2

  Root  Eigenvalue (Re)   Eigenvalue (Im)    |residual|   Delta E (Re)
  -------------------------------------------------------------------------
     1   0.356381148602    0.000000000000     0.6027E-04   0.8002E-04
  -------------------------------------------------------------------------

  Iteration:                  3
  Reduced space dimension:    3

  Root  Eigenvalue (Re)   Eigenvalue (Im)    |residual|   Delta E (Re)
  -------------------------------------------------------------------------
     1   0.356381134221    0.000000000000     0.4110E-04   0.1438E-07
  -------------------------------------------------------------------------

  Iteration:                  4
  Reduced space dimension:    4

  Root  Eigenvalue (Re)   Eigenvalue (Im)    |residual|   Delta E (Re)
  -------------------------------------------------------------------------
     1   0.356381132234    0.000000000000     0.1490E-04   0.1988E-08
  -------------------------------------------------------------------------

  Iteration:                  5
  Reduced space dimension:    5

  Root  Eigenvalue (Re)   Eigenvalue (Im)    |residual|   Delta E (Re)
  -------------------------------------------------------------------------
     1   0.356381132221    0.000000000000     0.1436E-06   0.1258E-10
  -------------------------------------------------------------------------

  Iteration:                  6
  Reduced space dimension:    6

  Root  Eigenvalue (Re)   Eigenvalue (Im)    |residual|   Delta E (Re)
  -------------------------------------------------------------------------
     1   0.356381132221    0.000000000000     0.1379E-14   0.1099E-13
  -------------------------------------------------------------------------
  Convergence criterion met in 6 iterations!

  - Excitation vector amplitudes:

     Electronic state nr. 1

     Energy (Hartree):                  0.356381132221
     Fraction singles (|R1|/|R|):       1.000000000000

     Largest single amplitudes:
     -----------------------------------
        a       i         R(a,i)
     -----------------------------------
        1      6       -0.999949259396
        1      3        0.010054643029
        1      5       -0.000574341676
        1      2       -0.000197000357
        2      4       -0.000118785421
        1      1        0.000000371784
        2      6        0.000000000000
        1      4       -0.000000000000
        2      5        0.000000000000
        2      3       -0.000000000000
     ------------------------------------

  - CCS excitation energies:

                                      Excitation energy
                          ------------------------------------------
      State                (Hartree)             (eV)
     ---------------------------------------------------------------
        1                  0.356381132221        9.697624559111
     ---------------------------------------------------------------
     eV/Hartree (CODATA 2014): 27.21138602


  Plotting orbitals and/or CC densities
  =====================================

  :: Visualization of orbitals and density

     Grid information              x             y             z
     ------------------------------------------------------------------
     First (A):                   -1.87         -1.08          4.00
     Last (A):                     1.73          1.32          8.40
     Number of grid points:        19            13             23
     ------------------------------------------------------------------

  - Placing the AOs evaluated on the grid in memory

  - Constructing NTOs for state 1

     Number of significant occupied orbitals: 1

       Significant eigenvalues:
         0.99999999E+00

     Number of significant virtual orbitals: 1

       Significant eigenvalues:
         0.99999999E+00

  - Plotting orbitals

  - Plotting orbitals

  ------------------------------------------------------------

  Peak memory usage during the execution of eT: 546.656 KB

  Total wall time in eT (sec):              0.22300
  Total cpu time in eT (sec):               0.15322

  Calculation ended: 2022-04-07 12:34:38 UTC -07:00

  - Implementation references:

     eT: https://doi.org/10.1063/5.0004713
     Cholesky decomposition of ERIs: https://doi.org/10.1063/1.5083802

  eT terminated successfully!
